id,name,model_id:id,group_id:id,perm_read,perm_write,perm_create,perm_unlink
access_crm_lead_template_user,access_crm_lead_template_user,model_crm_lead_template,,1,0,0,0
access_crm_lead_template_manager,access_crm_lead_template_manager,model_crm_lead_template,sales_team.group_sale_manager,1,1,1,1
