"id","name","model_id:id","group_id:id","perm_read","perm_write","perm_create","perm_unlink"
access_batch_group_field_manager,access_batch_group_field_manager,model_batch_group_field,stock.group_stock_manager,1,1,1,1
access_batch_group_field_lines_manager,access_batch_group_field_lines_manager,model_batch_group_field_lines,stock.group_stock_manager,1,1,1,1
access_batch_group_field_user,access_batch_group_field_user,model_batch_group_field,stock.group_stock_user,1,0,0,0
access_batch_group_field_lines_user,access_batch_group_field_lines_user,model_batch_group_field_lines,stock.group_stock_user,1,0,0,0
base.access_ir_model_fields_user,ir_model_fields all,base.model_ir_model_fields,base.group_user,1,0,0,0
